# Blender MTL File: 'uploads_files_2610857_MunichATC.blend'
# Material Count: 4

newmtl Material.005
Ns 225.000000
Ka 1.000000 1.000000 1.000000
Kd 0.749184 0.097477 0.800000
Ks 0.500000 0.500000 0.500000
Ke 0.119462 0.043597 0.349327
Ni 1.450000
d 1.000000
illum 3
map_Kd tower2.jpg

newmtl Material.006
Ns 225.000000
Ka 0.862385 0.862385 0.862385
Kd 0.019382 0.019382 0.019382
Ks 0.500000 0.500000 0.500000
Ke 0.000000 0.000000 0.000000
Ni 1.450000
d 1.000000
illum 3
map_Kd tower1.jpg

newmtl Material.007
Ns 225.000000
Ka 1.000000 1.000000 1.000000
Kd 0.749184 0.097477 0.800000
Ks 0.500000 0.500000 0.500000
Ke 0.119462 0.043597 0.349327
Ni 1.450000
d 1.000000
illum 2
map_Kd tower2.jpg

newmtl Material.008
Ns 225.000000
Ka 1.000000 1.000000 1.000000
Kd 0.019382 0.019382 0.019382
Ks 0.500000 0.500000 0.500000
Ke 0.495847 0.125084 0.355634
Ni 1.450000
d 1.000000
illum 2
map_Kd tower1.jpg
